eda_analytics_cup
…
# for loop which returns all unique values of each feature in the payments df
for (i in (1:length(payments_df))) { 
 print(unique(payments_df[i]))
}

## # A tibble: 1,402,250 x 1
##    Record_ID
##        <dbl>
##  1         1
##  2         2
##  3         3
##  4         4
##  5         5
##  6         6
##  7         7
##  8         8
##  9         9
## 10        10
## #  with 1,402,240 more rows
## # A tibble: 6,000 x 1
##    Physician_ID
##           <dbl>
##  1         2455
##  2         1534
##  3         2632
##  4          550
##  5         1710
##  6         3803
##  7         4171
##  8         1452
##  9         2123
## 10         2258
## #  with 5,990 more rows
## # A tibble: 1,518 x 1
##    Company_ID
##         <dbl>
##  1        597
##  2        593
##  3        760
##  4        826
##  5        145
##  6        115
##  7        897
##  8         74
##  9        152
## 10        190
## #  with 1,508 more rows
## # A tibble: 46,132 x 1
##    Total_Amount_of_Payment_USDollars
##                                <dbl>
##  1                             48.8 
##  2                            122.  
##  3                             10.3 
##  4                             13.7 
##  5                             17.2 
##  6                             12.9 
##  7                             13.3 
##  8                              2.48
##  9                             18.0 
## 10                              8.5 
## #  with 46,122 more rows
## # A tibble: 2,344 x 1
##    Date      
##    <chr>     
##  1 08/01/2013
##  2 08/02/2013
##  3 08/03/2013
##  4 08/04/2013
##  5 08/05/2013
##  6 08/06/2013
##  7 08/07/2013
##  8 08/08/2013
##  9 08/09/2013
## 10 08/10/2013
## #  with 2,334 more rows
## # A tibble: 66 x 1
##    Number_of_Payments
##                 <dbl>
##  1                  1
##  2                  4
##  3                  5
##  4                  2
##  5                  3
##  6                 13
##  7                  6
##  8                  7
##  9                 10
## 10                 12
## #  with 56 more rows
…
##  1 Food and Beverage                                                            
##  2 Education                                                                    
##  3 Consulting Fee                                                               
##  4 Compensation for services other than consulting, including serving as facult
##  5 Gift                                                                         
##  6 Entertainment                                                                
##  7 Travel and Lodging                                                           
##  8 Compensation for serving as faculty or as a speaker for a non-accredited and
##  9 Royalty or License                                                           
## 10 Honoraria                                                                    
## 11 Grant                                                                        
## 12 Current or prospective ownership or investment interest                      
## 13 Compensation for serving as faculty or as a speaker for an accredited or cer
## 14 Charitable Contribution                                                      
## # A tibble: 4,559 x 1
##    City_of_Travel
##    <chr>         
##  1 <NA>          
##  2 Larchmont     
##  3 Ada           
##  4 Las Vegas     
##  5 OAKLAND       
##  6 Raynham       
##  7 Audubon       
##  8 Orlando       
##  9 Union City    
## 10 SAN FRANCISCO 
## #  with 4,549 more rows
## # A tibble: 53 x 1
##    State_of_Travel
##    <chr>          
##  1 <NA>           
##  2 NY             
##  3 OK             
##  4 NV             
##  5 CA             
##  6 MA             
##  7 PA             
##  8 FL             
##  9 TN             
## 10 IL             
## #  with 43 more rows
## # A tibble: 63 x 1
##    Country_of_Travel 
##    <chr>             
##  1 <NA>              
##  2 United States     
##  3 Malaysia          
##  4 Canada            
##  5 Brazil            
##  6 Georgia           
##  7 Germany           
##  8 Great Britain (Uk)
##  9 France            
## 10 Spain             
## #  with 53 more rows
…
## 2 Individual            
## 3 Entity                
## # A tibble: 3 x 1
##   Charity
##   <chr>  
## 1 <NA>   
## 2 No     
## 3 Yes    
## # A tibble: 3 x 1
##   Third_Party_Covered
##   <chr>              
## 1 <NA>               
## 2 Yes                
## 3 No                 
## # A tibble: 31,930 x 1
##    Contextual_Information                                                       
##    <chr>                                                                        
##  1 <NA>                                                                         
##  2 SPEAKERPROGRAM 20920 77733 56296 5629661850 DEPOMED 20920 77733 56296 562966
##  3 Informational Meal                                                           
##  4 Physician did not actually receive this payment in cash or as income. Rather
##  5 497814-1466828-3727885-180-Gilead Sciencess                                  
##  6 Educational Item                                                             
##  7 Speaker Expenses                                                             
##  8 519724-1497431-3738593-1631-Gilead Sciences                                  
##  9 Fair market value compensation to speak, educate, and provide healthcare pro
## 10 535180-1525955-8020982-1491691-25220300-1491691-Gilead Sciences              
## #  with 31,920 more rows
## # A tibble: 6 x 1
##   Related_Product_Indicator
##   <chr>                    
## 1 Covered                  
## 2 Non-Covered              
## 3 Combination              
## 4 None                     
## 5 No                       
## 6 Yes                      
## # A tibble: 2,493 x 1
##    Product_Code_1
##    <chr>         
##  1 <NA>          
##  2 1529370001    
##  3 5254420431    
##  4 5024205306    
##  5 6362933571    
##  6 5914800613    
##  7 0169-6339-90  
##  8 6300487101    
##  9 0005970140    
## 10 6559770118    
## #  with 2,483 more rows
## # A tibble: 1,230 x 1
##    Product_Code_2
##    <chr>         
##  1 <NA>          
##  2 0002197590    
##  3 6476425103    
##  4 0006008182    
##  5 0025151501    
##  6 5024214501    
##  7 0005970140    
##  8 0005970135    
##  9 0065175007    
## 10 0024-5840-01  
## #  with 1,220 more rows
## # A tibble: 844 x 1
##    Product_Code_3
##    <chr>         
##  1 <NA>          
##  2 6476433560    
##  3 5024208701    
##  4 49281-400-05  
##  5 0005970148    
##  6 0052030161    
##  7 0002324030    
##  8 5901125630    
##  9 4353892190    
## 10 49281-013-10  
## #  with 834 more rows
…
## 4 Device                  
## 5 Drug                    
## 6 Biological              
## 7 Medical Supply          
## # A tibble: 7 x 1
##   Product_Type_3          
##   <chr>                   
## 1 <NA>                    
## 2 Drug or Biological      
## 3 Device or Medical Supply
## 4 Drug                    
## 5 Biological              
## 6 Device                  
## 7 Medical Supply          
## # A tibble: 8,921 x 1
##    Product_Name_1
##    <chr>         
##  1 Pacemakers    
##  2 Vascepa       
##  3 ACTHAR        
##  4 GENERESS      
##  5 Rituxan       
##  6 Benicar       
##  7 ABILIFY TABLET
##  8 NovoLog       
##  9 TRADJENTA     
## 10 <NA>          
## #  with 8,911 more rows
## # A tibble: 3,078 x 1
##    Product_Name_2
##    <chr>         
##  1 <NA>          
##  2 AXIRON        
##  3 AVONEX        
##  4 Oseni         
##  5 JANUMET XR    
##  6 CELEBREX      
##  7 Perjeta       
##  8 STELLARIS     
##  9 TRADJENTA     
## 10 PRADAXA       
## #  with 3,068 more rows
## # A tibble: 2,020 x 1
##    Product_Name_3   
##    <chr>            
##  1 <NA>             
##  2 Kazano           
##  3 Kadcyla          
##  4 GeneFx Colon     
##  5 ADACEL           
##  6 JENTADUETO       
##  7 GANIRELIX        
##  8 CYMBALTA         
##  9 INTERMEZZO       
## 10 Synalar TS Kit 90
## #  with 2,010 more rows
…
